sim/log/timer_en_fallingedge.log
# vsim -coverage -l timer_en_fallingedge.log -c test_bench -voptargs="+cover=bcesft" -assertdebug -do "coverage save -onexit timer_en_fallingedge.ucdb; log -r /*;run -all" 
# Start time: 18:04:34 on Apr 23,2025
# ** Note: (vsim-3813) Design is being optimized due to module recompilation...
# //  Questa Intel Starter FPGA Edition-64
# //  Version 2023.3 linux_x86_64 Jul 17 2023
# //
# //  Copyright 1991-2023 Mentor Graphics Corporation
# //  All Rights Reserved.
# //
# //  QuestaSim and its associated documentation contain trade
# //  secrets and commercial or financial information that are the property of
# //  Mentor Graphics Corporation and are privileged, confidential,
# //  and exempt from disclosure under the Freedom of Information Act,
# //  5 U.S.C. Section 552. Furthermore, this information
# //  is prohibited from disclosure under the Trade Secrets Act,
# //  18 U.S.C. Section 1905.
# //
# Loading sv_std.std
# Loading work.test_bench(fast)
# coverage save -onexit timer_en_fallingedge.ucdb
#  log -r /*
# run -all
# 
# =====================================================================
# ======================Timer_en FALLING EDGE CHECK======================
# =====================================================================
# 
# -------------------------------------------------------------------
# t=        100 [WRITE] : addr=004 wdata=00220022 pstrb=4'b1111
# -------------------------------------------------------------------
# t=        124 [WRITE] : addr=008 wdata=00aa00aa pstrb=4'b1111
# -------------------------------------------------------------------
# t=        148 [WRITE] : addr=000 wdata=00000001 pstrb=4'b1111
# t=        796 [READ]  : addr=004 rdata=0022008a
# t=        820 [READ]  : addr=008 rdata=00aa00aa
# -------------------------------------------------------------------
# t=        820 [WRITE] : addr=000 wdata=00000000 pstrb=4'b1111
# t=       1468 [READ]  : addr=004 rdata=00000000
# t=       1468 ==> PASS: addr=004 Exp=  00000000  Actual=00000000
# t=       1492 [READ]  : addr=008 rdata=00000000
# t=       1492 ==> PASS: addr=008 Exp=  00000000  Actual=00000000
# -------------------------------------------------------------------
# t=       1504 [WRITE] : addr=004 wdata=00220022 pstrb=4'b1111
# -------------------------------------------------------------------
# t=       1528 [WRITE] : addr=008 wdata=00aa00aa pstrb=4'b1111
# -------------------------------------------------------------------
# t=       1552 [WRITE] : addr=000 wdata=00000303 pstrb=4'b1111
# -------------------------------------------------------------------
# t=       1653 [WRITE] : addr=000 wdata=00000302 pstrb=4'b1111
# t=       1702 [READ]  : addr=004 rdata=00000000
# t=       1702 ==> PASS: addr=004 Exp=  00000000  Actual=00000000
# t=       1726 [READ]  : addr=008 rdata=00000000
# t=       1726 ==> PASS: addr=008 Exp=  00000000  Actual=00000000
# 
# =================================END=================================
# 
# Test_result PASSED
# ** Note: $finish    : ../tb/test_bench.v(68)
#    Time: 2726 ns  Iteration: 0  Instance: /test_bench
# Saving coverage database on exit...
# End time: 18:04:34 on Apr 23,2025, Elapsed time: 0:00:00
# Errors: 0, Warnings: 0
